{
    "file": "pflow-track-variables.json",
    "uchars": [
        "numberOfInnermostPixelLayerOutliers",
        "numberOfNextToInnermostPixelLayerOutliers",
        "numberOfPixelSpoiltHits",
	"numberOfContribPixelLayers",
	"numberOfContribPixelBarrelFlatLayers",
	"numberOfContribPixelBarrelInclinedLayers",
	"numberOfContribPixelEndcap",
	"numberOfPixelBarrelFlatHits",
	"numberOfPixelBarrelInclinedHits",
	"numberOfPixelEndcapHits"
    ],
    "floats": [
        "phi"
    ]
}
