{
    "jet_collection": "tempEmtopoJets",
    "calibration": {},
    "selection": {
        "minimum_jet_pt": 20000,
        "maximum_jet_absolute_eta": 2.5
    },
    "vertex_collection": "HLT_IDVertex_FS",
    "dl2_configs": [],
    "variables": {
        "btag": {
            "jet_int_variables": [
                "HadronConeExclTruthLabelID",
                "HadronConeExclExtendedTruthLabelID",
                "jetPtRank",
                "n_super_tracks",
                "n_super_tracks_associated",
                "n_super_tracks_fixed_cone"
            ],
            "jet_floats": [
                "HadronConeExclTruthLabelPt",
                "pt"
            ],
            "jet_halves": [
                "eta",
                "fastDips_pb",
                "fastDips_pc",
                "fastDips_pu",
                "fastGN1_pb",
                "fastGN1_pc",
                "fastGN1_pu"
            ],
            "event_compressed": [
                "mcEventWeight",
                "eventNumber",
                "averageInteractionsPerCrossing",
                "actualInteractionsPerCrossing",
                "nPrimaryVertices",
                "primaryVertexDetectorZ",
                "primaryVertexDetectorZUncertainty"
            ]
        },
        "default_mapping": {
            "file": "fragments/default-mapping.json"
        }
    },
    "tracks": [
        {
            "file": "fragments/tracks-relative-to-beamspot.json",
            "input_name": "superTracks",
            "output_name": "super_tracks"
        },
        {
            "file": "fragments/tracks-relative-to-beamspot.json",
            "input_name": "superTracksFixedCone",
            "output_name": "super_tracks_fixed_cone"
        },
        {
            "file": "fragments/tracks-relative-to-beamspot.json",
            "input_name": "TracksForMinimalJetTag",
            "output_name": "super_tracks_associated"
        }
    ],
    "truths": [
        {
            "file": "fragments/overlap-leptons.json"
        }
    ],
    "decorate": {
        "jet_aug": false,
        "btag_jes": false,
        "soft_muon": false,
        "track_truth_info": false,
        "track_sv_info": false,
        "track_lepton_id": false
    },
    "btagging_link": ""
}

