{
    "file": "upgrade.json",
    "is21p9_AOD": true,
    "dl2_configs": [
        {
            "nn_file_path": "BTagging/20221008/dipsrun4/antikt4emtopo/network.json",
            "where": "btag"
        },
        {
            "nn_file_path": "BTagging/20221017/dl1drun4/antikt4emtopo/network.json",
            "where": "btag"
        },
        {
            "nn_file_path": "BTagging/20221010/GN1run4/antikt4emtopo/network.onnx",
            "engine": "gnn",
            "where": "btag"
        }
    ],
    "variables": {
        "btag": {
            "event": [
                "nTruthInteractionsPerCrossing"
            ]
        }
    },
    "tracks": [
        {
            "n_to_save": 40,
            "selection": {
                "file": "fragments/ip3d-upgrade-loose-track-cuts.json"
            },
            "sort_order": "abs_beamspot_d0",
            "btagging_link": "btaggingLink",
            "input_name": "BTagTrackToJetAssociator",
            "output_name": "tracks",
            "variables": {
                "file": "fragments/pflow-track-variables-upgrade-21p9.json"
            },
            "ip_prefix": "btagIp_"
        }
    ],
    "decorate": {
        "truth_pileup": true
    }
}
